…
3.  You can extract the fit for cpue, as well as the biomass estimate.

``` r
get_cpue_fit(delury_model)
#> # A tibble: 33 × 14
#>        t cpue_fit .lower .upper .width .point .interval  date catch_pounds traps
#>    <int>    <dbl>  <dbl>  <dbl>  <dbl> <chr>  <chr>     <int>        <int> <int>
#>  1     1    0.959  0.916  1.02    0.95 median qi            2          147   200
#>  2     2    0.957  0.914  1.02    0.95 median qi            3         2796  3780
#>  3     3    0.952  0.908  1.01    0.95 median qi            4         6888  7174
#>  4     4    0.944  0.902  0.996   0.95 median qi            5         7723  8850
#>  5     5    0.939  0.899  0.989   0.95 median qi            8         5330  5793
#>  6     6    0.930  0.892  0.977   0.95 median qi            9         8839  9504
#>  7     7    0.924  0.886  0.968   0.95 median qi           10         6324  6655
#>  8     8    0.920  0.883  0.963   0.95 median qi           11         3569  3685
#>  9     9    0.911  0.874  0.950   0.95 median qi           12         8120  8202
#> 10    10    0.900  0.864  0.937   0.95 median qi           13         8084  8585
#> # … with 23 more rows, and 4 more variables: cpue <dbl>, traps_cum <int>,
#> #   cpue_l <dbl>, cpue_l10 <dbl>
```

``` r
get_biomass(delury_model)
#> # A tibble: 33 × 13
#>    biomass  .lower .upper .width .point .interval  date catch_pounds traps  cpue
#>      <dbl>   <dbl>  <dbl>  <dbl> <chr>  <chr>     <int>        <int> <int> <dbl>
#>  1 173340. 165295. 2.00e5   0.95 median qi            2          147   200  0.74
#>  2 173192. 165147. 2.00e5   0.95 median qi            3         2796  3780  0.74
#>  3 170395. 162349. 1.97e5   0.95 median qi            4         6888  7174  0.96
#>  4 163508. 155462. 1.90e5   0.95 median qi            5         7723  8850  0.87
#>  5 155808. 147763. 1.82e5   0.95 median qi            8         5330  5793  0.92
#>  6 150478. 142433. 1.77e5   0.95 median qi            9         8839  9504  0.93
#>  7 141640. 133595. 1.68e5   0.95 median qi           10         6324  6655  0.95
#>  8 135318. 127272. 1.62e5   0.95 median qi           11         3569  3685  0.97
#>  9 131743. 123698. 1.58e5   0.95 median qi           12         8120  8202  0.99
#> 10 123623. 115578. 1.50e5   0.95 median qi           13         8084  8585  0.94
#> # … with 23 more rows, and 3 more variables: traps_cum <int>, cpue_l <dbl>,
#> #   cpue_l10 <dbl>
```
…
