Fitting a CSDM model • csdm
…
You can extract the fit for cpue, as well as the biomass estimate.

get_cpue_fit(delury_model)
#> Warning: `gather_()` was deprecated in tidyr 1.2.0.
#> Please use `gather()` instead.
#> This warning is displayed once every 8 hours.
#> Call `lifecycle::last_lifecycle_warnings()` to see where this warning was generated.
#> # A tibble: 33 × 14
#>        t cpue_fit .lower .upper .width .point .inter…¹  date catch…² traps  cpue
#>    <int>    <dbl>  <dbl>  <dbl>  <dbl> <chr>  <chr>    <int>   <int> <int> <dbl>
#>  1     1    0.957  0.915  1.02    0.95 median qi           2     147   200  0.74
#>  2     2    0.954  0.913  1.01    0.95 median qi           3    2796  3780  0.74
#>  3     3    0.949  0.909  1.00    0.95 median qi           4    6888  7174  0.96
#>  4     4    0.943  0.903  0.992   0.95 median qi           5    7723  8850  0.87
#>  5     5    0.938  0.899  0.984   0.95 median qi           8    5330  5793  0.92
#>  6     6    0.929  0.893  0.970   0.95 median qi           9    8839  9504  0.93
#>  7     7    0.923  0.887  0.961   0.95 median qi          10    6324  6655  0.95
#>  8     8    0.920  0.884  0.956   0.95 median qi          11    3569  3685  0.97
#>  9     9    0.911  0.876  0.945   0.95 median qi          12    8120  8202  0.99
#> 10    10    0.901  0.865  0.933   0.95 median qi          13    8084  8585  0.94
#> # … with 23 more rows, 3 more variables: traps_cum <int>, cpue_l <dbl>,
#> #   cpue_l10 <dbl>, and abbreviated variable names ¹​.interval, ²​catch_pounds
#> # ℹ Use `print(n = ...)` to see more rows, and `colnames()` to see all variable names

get_biomass(delury_model)
#> # A tibble: 33 × 13
#>    biomass .lower .upper .width .point .inte…¹  date catch…² traps  cpue traps…³
#>      <dbl>  <dbl>  <dbl>  <dbl> <chr>  <chr>   <int>   <int> <int> <dbl>   <int>
#>  1 172164. 1.65e5 2.04e5   0.95 median qi          2     147   200  0.74     200
#>  2 172016. 1.65e5 2.04e5   0.95 median qi          3    2796  3780  0.74    3980
#>  3 169219. 1.62e5 2.01e5   0.95 median qi          4    6888  7174  0.96   11154
#>  4 162332. 1.55e5 1.95e5   0.95 median qi          5    7723  8850  0.87   20004
#>  5 154632. 1.48e5 1.87e5   0.95 median qi          8    5330  5793  0.92   25797
#>  6 149302. 1.42e5 1.82e5   0.95 median qi          9    8839  9504  0.93   35301
#>  7 140464. 1.33e5 1.73e5   0.95 median qi         10    6324  6655  0.95   41956
#>  8 134141. 1.27e5 1.66e5   0.95 median qi         11    3569  3685  0.97   45641
#>  9 130567. 1.24e5 1.63e5   0.95 median qi         12    8120  8202  0.99   53843
#> 10 122447. 1.15e5 1.55e5   0.95 median qi         13    8084  8585  0.94   62428
#> # … with 23 more rows, 2 more variables: cpue_l <dbl>, cpue_l10 <dbl>, and
#> #   abbreviated variable names ¹​.interval, ²​catch_pounds, ³​traps_cum
#> # ℹ Use `print(n = ...)` to see more rows, and `colnames()` to see all variable names
…
